1 | What is JAVA? | B | E | A - A programming language for the Web. | B - A high-level programming language and is platform-independent. | C - A data structure. | D - An integrated development environment.
2 | What are the features of JAVA? | A | E | A - OOP concepts, platform independent, high performance, multi-threaded | B - Light weight scripting language, interpreted language, async Processing. | C - Debugging tools, code completion, compiler. | D - Built-in support, code refactoring.
3 | How does Java enable high performance? | C | M | A - Uses XmlNodeReader over XPath. | B - Uses 'for' instead of 'forEach'. | C - It uses Just In Time compiler to enable high performance. It is used to convert the instructions into bytecodes. | D - By providing high level math and physics abstractions such as multidimensional arrays, fields, particles, and transforms.
4 | What is a Class? | D | E | A - A collection of objects. | B - A place where the exact business logic has to be done. | C - Attribute which defines a state. | D - All Java codes are defined in a Class. It has variables and methods.